{
	"info": {
		"_postman_id": "d9089295-eda6-4c95-b72e-34fe96513212",
		"name": "mirolo Display API",
		"schema": "https://schema.getpostman.com/json/collection/v2.1.0/collection.json"
	},
	"item": [
		{
			"name": "/api/line0",
			"request": {
				"method": "GET",
				"header": [],
				"body": {
					"mode": "raw",
					"raw": ""
				},
				"url": {
					"raw": "{{ip}}/api/line0",
					"host": [
						"{{ip}}"
					],
					"path": [
						"api",
						"line0"
					]
				}
			},
			"response": []
		},
		{
			"name": "/api/line1",
			"request": {
				"method": "GET",
				"header": [],
				"body": {
					"mode": "raw",
					"raw": ""
				},
				"url": {
					"raw": "{{ip}}/api/line1",
					"host": [
						"{{ip}}"
					],
					"path": [
						"api",
						"line1"
					]
				}
			},
			"response": []
		},
		{
			"name": "/api/ring0",
			"request": {
				"method": "GET",
				"header": [],
				"body": {
					"mode": "raw",
					"raw": ""
				},
				"url": {
					"raw": "{{ip}}/api/ring0",
					"host": [
						"{{ip}}"
					],
					"path": [
						"api",
						"ring0"
					]
				}
			},
			"response": []
		},
		{
			"name": "/api/brightness",
			"request": {
				"method": "GET",
				"header": [],
				"body": {
					"mode": "raw",
					"raw": ""
				},
				"url": {
					"raw": "{{ip}}/api/brightness",
					"host": [
						"{{ip}}"
					],
					"path": [
						"api",
						"brightness"
					]
				}
			},
			"response": []
		},
		{
			"name": "/api/ldr",
			"request": {
				"method": "GET",
				"header": [
					{
						"key": "Content-Type",
						"value": "application/json"
					}
				],
				"body": {
					"mode": "raw",
					"raw": "{\n    \"name\": \"Display Hallway\"\n}"
				},
				"url": {
					"raw": "{{ip}}/api/ldr",
					"host": [
						"{{ip}}"
					],
					"path": [
						"api",
						"ldr"
					]
				},
				"description": "Get the lightsensor raw data (0-1023);"
			},
			"response": []
		},
		{
			"name": "/api/ir",
			"request": {
				"method": "GET",
				"header": [],
				"body": {
					"mode": "raw",
					"raw": ""
				},
				"url": {
					"raw": "{{ip}}/api/ir",
					"host": [
						"{{ip}}"
					],
					"path": [
						"api",
						"ir"
					]
				}
			},
			"response": []
		},
		{
			"name": "/api/info",
			"request": {
				"method": "GET",
				"header": [],
				"body": {
					"mode": "raw",
					"raw": ""
				},
				"url": {
					"raw": "{{ip}}/api/info",
					"host": [
						"{{ip}}"
					],
					"path": [
						"api",
						"info"
					]
				}
			},
			"response": []
		},
		{
			"name": "/api/name",
			"request": {
				"method": "GET",
				"header": [
					{
						"key": "Content-Type",
						"value": "application/json"
					}
				],
				"body": {
					"mode": "raw",
					"raw": "{\n    \"name\": \"Display Hallway\"\n}"
				},
				"url": {
					"raw": "{{ip}}/api/name",
					"host": [
						"{{ip}}"
					],
					"path": [
						"api",
						"name"
					]
				}
			},
			"response": []
		},
		{
			"name": "/api/apply",
			"request": {
				"method": "GET",
				"header": [
					{
						"key": "Content-Type",
						"value": "application/json"
					}
				],
				"body": {
					"mode": "raw",
					"raw": "{\n    \"name\": \"Display Hallway\"\n}"
				},
				"url": {
					"raw": "{{ip}}/api/apply",
					"host": [
						"{{ip}}"
					],
					"path": [
						"api",
						"apply"
					]
				}
			},
			"response": []
		},
		{
			"name": "/api/power",
			"request": {
				"method": "GET",
				"header": [],
				"body": {
					"mode": "raw",
					"raw": ""
				},
				"url": {
					"raw": "{{ip}}/api/power",
					"host": [
						"{{ip}}"
					],
					"path": [
						"api",
						"power"
					]
				}
			},
			"response": []
		},
		{
			"name": "/api/line0",
			"request": {
				"method": "PATCH",
				"header": [
					{
						"key": "Content-Type",
						"value": "application/json"
					}
				],
				"body": {
					"mode": "raw",
					"raw": "{\n    \"message\": \"1234 test\",\n    \"prefix\": 4,\n    \"speed\": 75\n}"
				},
				"url": {
					"raw": "{{ip}}/api/line0",
					"host": [
						"{{ip}}"
					],
					"path": [
						"api",
						"line0"
					]
				}
			},
			"response": []
		},
		{
			"name": "/api/line1",
			"request": {
				"method": "PATCH",
				"header": [
					{
						"key": "Content-Type",
						"value": "application/json"
					}
				],
				"body": {
					"mode": "raw",
					"raw": "{\n    \"message\": \"5678 test\",\n    \"prefix\": 4,\n    \"speed\": 30\n}"
				},
				"url": {
					"raw": "{{ip}}/api/line1",
					"host": [
						"{{ip}}"
					],
					"path": [
						"api",
						"line1"
					]
				}
			},
			"response": []
		},
		{
			"name": "/api/ring0 (pink)",
			"request": {
				"method": "PATCH",
				"header": [
					{
						"key": "Content-Type",
						"value": "application/json"
					}
				],
				"body": {
					"mode": "raw",
					"raw": "{\n\"frame\": {\n\t\"colors\": [\n\t\t\"#cc00ee\",\n\t\t\"#cc00ee\",\t\t\n\t\t\"#cc00ee\",\n\t\t\"#cc00ee\",\n\t\t\"#cc00ee\",\n\t\t\"#cc00ee\",\n\t\t\"#cc00ee\",\n\t\t\"#cc00ee\",\n\t\t\"#cc00ee\",\n\t\t\"#cc00ee\",\n\t\t\"#cc00ee\",\n\t\t\"#cc00ee\",\n\t\t\"#cc00ee\",\n\t\t\"#cc00ee\",\n\t\t\"#cc00ee\",\n\t\t\"#cc00ee\"\n\t],\n\t\"time\": 500\n\t},\n\"loop\": true\n}\n"
				},
				"url": {
					"raw": "{{ip}}/api/ring0",
					"host": [
						"{{ip}}"
					],
					"path": [
						"api",
						"ring0"
					]
				}
			},
			"response": []
		},
		{
			"name": "/api/ring0 (blue)",
			"request": {
				"method": "PATCH",
				"header": [
					{
						"key": "Content-Type",
						"value": "application/json"
					}
				],
				"body": {
					"mode": "raw",
					"raw": "{\n\"frame\": {\n\t\"colors\": [\n\t\t\"#0000ee\",\n\t\t\"#0000ee\",\t\t\n\t\t\"#0000ee\",\n\t\t\"#0000ee\",\n\t\t\"#0000ee\",\n\t\t\"#0000ee\",\n\t\t\"#0000ee\",\n\t\t\"#0000ee\",\n\t\t\"#0000ee\",\n\t\t\"#0000ee\",\n\t\t\"#0000ee\",\n\t\t\"#0000ee\",\n\t\t\"#0000ee\",\n\t\t\"#0000ee\",\n\t\t\"#0000ee\",\n\t\t\"#0000ee\"\n\t],\n\t\"time\": 500\n\t},\n\"loop\": true\n}\n"
				},
				"url": {
					"raw": "{{ip}}/api/ring0",
					"host": [
						"{{ip}}"
					],
					"path": [
						"api",
						"ring0"
					]
				}
			},
			"response": []
		},
		{
			"name": "/api/ring0 (empty)",
			"request": {
				"method": "PATCH",
				"header": [
					{
						"key": "Content-Type",
						"value": "application/json"
					}
				],
				"body": {
					"mode": "raw",
					"raw": "{\n\"loop\": true\n}\n"
				},
				"url": {
					"raw": "{{ip}}/api/ring0",
					"host": [
						"{{ip}}"
					],
					"path": [
						"api",
						"ring0"
					]
				}
			},
			"response": []
		},
		{
			"name": "/api/brightness",
			"request": {
				"method": "PATCH",
				"header": [
					{
						"key": "Content-Type",
						"value": "application/json"
					}
				],
				"body": {
					"mode": "raw",
					"raw": "{\n    \"brightness\": 5\n}"
				},
				"url": {
					"raw": "{{ip}}/api/brightness",
					"host": [
						"{{ip}}"
					],
					"path": [
						"api",
						"brightness"
					]
				}
			},
			"response": []
		},
		{
			"name": "/api/line0",
			"request": {
				"method": "POST",
				"header": [
					{
						"key": "Content-Type",
						"value": "application/json"
					}
				],
				"body": {
					"mode": "raw",
					"raw": "{\n    \"message\": \"4321test\",\n    \"prefix\": 4,\n    \"speed\": 20\n}"
				},
				"url": {
					"raw": "{{ip}}/api/line0",
					"host": [
						"{{ip}}"
					],
					"path": [
						"api",
						"line0"
					]
				}
			},
			"response": []
		},
		{
			"name": "/api/line0 (280 char test)",
			"request": {
				"method": "POST",
				"header": [
					{
						"key": "Content-Type",
						"value": "application/json"
					}
				],
				"body": {
					"mode": "raw",
					"raw": "{\n    \"message\": \"1234567890123456789012345678901234567890123456789012345678901234567890123456789012345678901234567890123456789012345678901234567890123456789012345678901234567890123456789012345678901234567890123456789012345678901234567890123456789012345678901234567890123456789012345678901234567890\",\n    \"prefix\": 4,\n    \"speed\": 200\n}"
				},
				"url": {
					"raw": "{{ip}}/api/line0",
					"host": [
						"{{ip}}"
					],
					"path": [
						"api",
						"line0"
					]
				}
			},
			"response": []
		},
		{
			"name": "/api/line1",
			"request": {
				"method": "POST",
				"header": [
					{
						"key": "Content-Type",
						"value": "application/json"
					}
				],
				"body": {
					"mode": "raw",
					"raw": "{\n    \"message\": \"8765 test\",\n    \"prefix\": 4,\n    \"speed\": 75\n}"
				},
				"url": {
					"raw": "{{ip}}/api/line1",
					"host": [
						"{{ip}}"
					],
					"path": [
						"api",
						"line1"
					]
				}
			},
			"response": []
		},
		{
			"name": "/api/ring0 (red)",
			"request": {
				"method": "POST",
				"header": [
					{
						"key": "Content-Type",
						"value": "application/json"
					}
				],
				"body": {
					"mode": "raw",
					"raw": "{\n\"frame\": {\n\t\"colors\": [\n\t\t\"#cc0000\",\n\t\t\"#cc0000\",\t\t\n\t\t\"#cc0000\",\n\t\t\"#cc0000\",\n\t\t\"#cc0000\",\n\t\t\"#cc0000\",\n\t\t\"#cc0000\",\n\t\t\"#cc0000\",\n\t\t\"#cc0000\",\n\t\t\"#cc0000\",\n\t\t\"#cc0000\",\n\t\t\"#cc0000\",\n\t\t\"#cc0000\",\n\t\t\"#cc0000\",\n\t\t\"#cc0000\",\n\t\t\"#cc0000\"\n\t],\n\t\"time\": 100\n\t},\n\"loop\": true\n}\n"
				},
				"url": {
					"raw": "{{ip}}/api/ring0",
					"host": [
						"{{ip}}"
					],
					"path": [
						"api",
						"ring0"
					]
				}
			},
			"response": []
		},
		{
			"name": "/api/ring0 (empty)",
			"request": {
				"method": "POST",
				"header": [
					{
						"key": "Content-Type",
						"value": "application/json"
					}
				],
				"body": {
					"mode": "raw",
					"raw": "{\n}\n"
				},
				"url": {
					"raw": "{{ip}}/api/ring0",
					"host": [
						"{{ip}}"
					],
					"path": [
						"api",
						"ring0"
					]
				}
			},
			"response": []
		},
		{
			"name": "/api/brightness",
			"request": {
				"method": "POST",
				"header": [
					{
						"key": "Content-Type",
						"value": "application/json"
					}
				],
				"body": {
					"mode": "raw",
					"raw": "{\n    \"brightness\": \"14\"\n}"
				},
				"url": {
					"raw": "{{ip}}/api/brightness",
					"host": [
						"{{ip}}"
					],
					"path": [
						"api",
						"brightness"
					]
				}
			},
			"response": []
		},
		{
			"name": "/api/revert",
			"request": {
				"method": "POST",
				"header": [
					{
						"key": "Content-Type",
						"value": "application/json"
					}
				],
				"body": {
					"mode": "raw",
					"raw": ""
				},
				"url": {
					"raw": "{{ip}}/api/revert",
					"host": [
						"{{ip}}"
					],
					"path": [
						"api",
						"revert"
					]
				},
				"description": "Revert data in \"pending\" and reset them to the values stored in \"active\"."
			},
			"response": []
		},
		{
			"name": "/api/apply",
			"request": {
				"method": "POST",
				"header": [
					{
						"key": "Content-Type",
						"value": "application/json"
					}
				],
				"body": {
					"mode": "raw",
					"raw": ""
				},
				"url": {
					"raw": "{{ip}}/api/apply",
					"host": [
						"{{ip}}"
					],
					"path": [
						"api",
						"apply"
					]
				},
				"description": "LAtch data from \"pending\" to \"active\" and make them visible on the display. No payload required"
			},
			"response": []
		},
		{
			"name": "/api/name",
			"request": {
				"method": "POST",
				"header": [
					{
						"key": "Content-Type",
						"value": "application/json"
					}
				],
				"body": {
					"mode": "raw",
					"raw": "{\n    \"name\": \"Display Hallway\"\n}"
				},
				"url": {
					"raw": "{{ip}}/api/name",
					"host": [
						"{{ip}}"
					],
					"path": [
						"api",
						"name"
					]
				}
			},
			"response": []
		},
		{
			"name": "/api/power",
			"request": {
				"method": "POST",
				"header": [
					{
						"key": "Content-Type",
						"value": "application/json"
					}
				],
				"body": {
					"mode": "raw",
					"raw": "{\n    \"enable\": false\n}"
				},
				"url": {
					"raw": "{{ip}}/api/power",
					"host": [
						"{{ip}}"
					],
					"path": [
						"api",
						"power"
					]
				}
			},
			"response": []
		}
	],
	"event": [
		{
			"listen": "prerequest",
			"script": {
				"id": "fcec1db7-f749-4997-85e2-ca7207980216",
				"type": "text/javascript",
				"exec": [
					""
				]
			}
		},
		{
			"listen": "test",
			"script": {
				"id": "a527d655-a485-47c7-97f3-6e4127ec8c40",
				"type": "text/javascript",
				"exec": [
					""
				]
			}
		}
	],
	"variable": [
		{
			"id": "4ef0e8c7-d8ca-4a4a-9273-bd38756e96fc",
			"key": "ip",
			"value": "192.168.130.105",
			"type": "string",
			"description": ""
		}
	]
}